-----BEGIN PGP PUBLIC KEY BLOCK-----

mDMEYVnTBBYJKwYBBAHaRw8BAQdA/IO83Yz2HKg86EWENRL49UhEKe4VF+zgV99F
8dJ66CK0H1ZpY3RvciBCdXR0bmVyIDx2aWN0b3JAMHgyMy5kaz6IkAQTFggAOBYh
BF7YuY9r0F1SBZHvogB8olGzBOCSBQJhWdMEAhsDBQsJCAcCBhUKCQgLAgQWAgMB
Ah4BAheAAAoJEAB8olGzBOCSdWYA/A1l2PhllEnB/Xejp180wm0Q0stUCPpMblKp
raCFO23cAQCc/ECbkkc/iQX7QeBElpkvvF+w6IW5R6mszOSM6AUUDrg4BGFZ0wQS
CisGAQQBl1UBBQEBB0BjeW/HzHuOi7TrBrLKnipHVsZNpoKwhdKD3UAEs5GQbAMB
CAeIeAQYFggAIBYhBF7YuY9r0F1SBZHvogB8olGzBOCSBQJhWdMEAhsMAAoJEAB8
olGzBOCSPdAA/2NM/ZJWdPmqGBmNg6cuXuqiyL/rvhN8qxqwzb/zy8VoAQCSuAZH
OJkA9aqGBL/Zi1xqgqPiHA1FqWQm9hZJJXO4BQ==
=QWVo
-----END PGP PUBLIC KEY BLOCK-----
